{
  "project_info": {
    "project_number": "380169165896",
    "firebase_url": "https://backup-e3326.firebaseio.com",
    "project_id": "backup-e3326",
    "storage_bucket": "backup-e3326.appspot.com"
  },
  "client": [
    {
      "client_info": {
        "mobilesdk_app_id": "1:380169165896:android:060b1edb090cbb1e5c4c7d",
        "android_client_info": {
          "package_name": "god.knows.application"
        }
      },
      "oauth_client": [
        {
          "client_id": "380169165896-dsrd4nfaod6kf6b30ssrtfhnv53vg3n3.apps.googleusercontent.com",
          "client_type": 1,
          "android_info": {
            "package_name": "god.knows.application",
            "certificate_hash": "caa4300b4de0cc6da57d5f84910ee0ef23788bd2"
          }
        },
        {
          "client_id": "380169165896-ors71ksphredm40gl5go24nsvrvvc901.apps.googleusercontent.com",
          "client_type": 3
        }
      ],
      "api_key": [
        {
          "current_key": "AIzaSyAu0H3-EyrerLB7zpvxmWIK-RXnvWHqnbc"
        }
      ],
      "services": {
        "appinvite_service": {
          "other_platform_oauth_client": [
            {
              "client_id": "380169165896-ors71ksphredm40gl5go24nsvrvvc901.apps.googleusercontent.com",
              "client_type": 3
            }
          ]
        }
      }
    },
    {
      "client_info": {
        "mobilesdk_app_id": "1:380169165896:android:b4595211169a9d025c4c7d",
        "android_client_info": {
          "package_name": "god.knows.backup"
        }
      },
      "oauth_client": [
        {
          "client_id": "380169165896-ogsme59gs4l7fgm8dbet2c3q2bd2m4ov.apps.googleusercontent.com",
          "client_type": 1,
          "android_info": {
            "package_name": "god.knows.backup",
            "certificate_hash": "caa4300b4de0cc6da57d5f84910ee0ef23788bd2"
          }
        },
        {
          "client_id": "380169165896-ors71ksphredm40gl5go24nsvrvvc901.apps.googleusercontent.com",
          "client_type": 3
        }
      ],
      "api_key": [
        {
          "current_key": "AIzaSyAu0H3-EyrerLB7zpvxmWIK-RXnvWHqnbc"
        }
      ],
      "services": {
        "appinvite_service": {
          "other_platform_oauth_client": [
            {
              "client_id": "380169165896-ors71ksphredm40gl5go24nsvrvvc901.apps.googleusercontent.com",
              "client_type": 3
            }
          ]
        }
      }
    }
  ],
  "configuration_version": "1"
}